{
  "data": {
    "id": "32412342",
    "currency": "PEN",
    "comments": "Estado de Cuenta 06.2022",
    "processId": "22256671",
    "legalNumberId": 500,
    "externalBankId": "BCPLPEPL891",
    "intermediaryBankName": "Banco de las Américas",
    "intermediaryPersonId": "F099284DE",
    "version": 5,
    "errorMessageId": "E0002",
    "creationDate": "2022-06-27T15:35:00-05:00",
    "priority": { "id": "HIGH", "name": "Alta prioridad" },
    "schemeBank": { "id": "DLOD", "name": "DaylightOverdraft" },
    "transactions": [{ "id": "1" }],
    "sourceOriginFile": {
      "id": "1234",
      "internalCode": "41234123",
      "lineNumber": "00001",
      "pageNumber": 20,
      "totalEntryNumber": 20,
      "lastPageId": "10",
      "version": 3,
      "registerTypeId": "0",
      "creationDate": "2022-06-11T15:20:00-05:00",
      "sourceOriginFileType": { "id": "NOSTROS", "name": "Nostros" },
      "financialStatement": { "id": "145" },
      "account": {
        "currency": "PEN",
        "parentAccountId": "134123",
        "relatedAccountId": "434132",
        "addressTypeId": "21",
        "schemeId": "121",
        "manager": { "id": "202112210000484", "addressTypeId": "BIZZ" },
        "typeAccount": { "id": "CASH", "name": "200 0001 3000215587-S" },
        "bank": {
          "id": "BCPLPEPL",
          "compensationSystemId": "ATBLZ",
          "references": "ES5001820061700080101708"
        }
      }
    },
    "openBalance": {
      "id": "1234123",
      "amount": 2000,
      "currency": "PEN",
      "openBalanceDate": "2022-05-22T05:20:00-05:00",
      "sign": { "id": "DEBIT", "name": "Debit" }
    },
    "closeBalance": {
      "id": "134134",
      "amount": 1500,
      "currency": "PEN",
      "closeBalanceDate": "2022-05-22T05:20:00-05:00",
      "sign": { "id": "DEBIT", "name": "Debit" }
    },
    "availableBalance": {
      "amount": 1200,
      "currency": "PEN",
      "availableBalanceDate": "2022-06-27T05:20:00-05:00",
      "sign": { "id": "DEBIT", "name": "Debit" }
    },
    "totalAmountSign": { "id": "DEBIT" },
    "totalAmounts": [
      { "amount": 120, "currency": "PEN", "sign": { "id": "DEBIT" } }
    ],
    "banks": [
      {
        "id": "SENDER",
        "internalCode": "1234132",
        "name": "City bank",
        "bankType": "SENDER",
        "compensationSystemId": "AUBSB",
        "legalEntityId": "335800UBU3Z9BYN4IM23"
      }
    ],
    "gaps": [
      {
        "id": "1234132",
        "internalCode": "1132",
        "amount": 23.99,
        "currency": "PEN",
        "totalNumber": 5,
        "gapType": "AA",
        "status": { "id": "ACTIVE", "name": "Active" }
      }
    ],
    "creatorBusinessAgent": { "user": "132413" }
  }
}
