{
    "data": {
      "id": "112401013709",
      "number": "112401013709",
      "name": "XXXXXXXX",
      "shortName": "XXXXXXXX",
      "currency": "CNY",
      "swift": "SCBLCN",
      "creationDate": "2022-08-09T09:01:05.000-0500",
      "lastUpdateDate": "2022-08-09T09:01:05.000-0500",
      "comment": "--",
      "accountOriginType": {
        "id": "C",
        "name": "C"
      },
      "status": {
        "id": "INACTIVE",
        "name": "INACTIVE"
      },
      "participants": [
        {
          "id": "p027140",
          "participantType": "CREATOR"
        },
        {
          "id": "p027140",
          "participantType": "AUDIT"
        }
      ],
      "bank": {
        "id": "501511083779",
        "location": {
          "addressName": "0",
          "city": "XXX",
          "country": "XXX",
          "branch": {
            "id": "0",
            "name": "X"
          }
        }
      }
    }
  }