{
  "data": {
    "executionProcessDate": "2022-08-05T05:20:00-05:00",
    "currentConciliationOnlineStatus": {
      "isSuccess": false,
      "message": "Se encontraron GAPS en los estados de cuenta."
    },
    "financialStatements": [
      {
        "accountId": "12341",
        "gaps": [{ "internalCode": "4343", "totalNumber": 14, "gapType": "AA" }]
      },
      {
        "accountId": "12341",
        "gaps": [{ "internalCode": "4343", "totalNumber": 14, "gapType": "AA" }]
      }
    ]
  }
}
