{
    "data": [
      {
        "id": "2121070224",
        "number": "2121070224",
        "name": "GIROS MAYORES DE UN AÑO",
        "shortName": "GIROS MAYORES DE UN AÑO",
        "currency": "USD",
        "swift": "C",
        "creationDate": "2022-07-27T22:36:56.247-0500",
        "lastUpdateDate": "2022-08-01T17:32:47.284-0500",
        "comment": "--",
        "accountOriginType": {
          "id": "C"
        },
        "status": {
          "id": "ACTIVE"
        },
        "participants": [
          {
            "id": "p027140",
            "participantType": "CREATOR"
          },
          {
            "id": "p027140",
            "participantType": "UPDATED"
          },
          {
            "id": "p027140",
            "participantType": "CREATOR"
          },
          {
            "id": "p027140",
            "participantType": "UPDATED"
          },
          {
            "id": "p027140",
            "participantType": "CREATOR"
          },
          {
            "id": "p027140",
            "participantType": "UPDATED"
          },
          {
            "id": "p027140",
            "participantType": "CREATOR"
          },
          {
            "id": "p027140",
            "participantType": "UPDATED"
          },
          {
            "id": "p027140",
            "participantType": "CREATOR"
          },
          {
            "id": "p027140",
            "participantType": "UPDATED"
          },
          {
            "id": "p027140",
            "participantType": "CREATOR"
          },
          {
            "id": "p027140",
            "participantType": "UPDATED"
          },
          {
            "id": "p027140",
            "participantType": "CREATOR"
          },
          {
            "id": "p027140",
            "participantType": "UPDATED"
          },
          {
            "id": "p027140",
            "participantType": "CREATOR"
          },
          {
            "id": "p027140",
            "participantType": "UPDATED"
          },
          {
            "id": "p027140",
            "participantType": "CREATOR"
          },
          {
            "id": "p027140",
            "participantType": "UPDATED"
          },
          {
            "id": "p027140",
            "participantType": "CREATOR"
          },
          {
            "id": "p027140",
            "participantType": "UPDATED"
          }
        ],
        "bank": {
          "id": "C",
          "location": {
            "addressName": "0",
            "city": "XXX",
            "country": "XXX",
            "branch": {
              "id": "0",
              "name": "X"
            }
          }
        }
      },
      {
        "id": "2121070223",
        "number": "2121070223",
        "name": "XXXXXXXX",
        "shortName": "XXXXXXXX",
        "currency": "SEK",
        "swift": "C",
        "creationDate": "2022-07-27T22:36:55.893-0500",
        "lastUpdateDate": "2022-07-27T22:36:55.893-0500",
        "comment": "--",
        "accountOriginType": {
          "id": "C"
        },
        "status": {
          "id": "INACTIVE"
        },
        "participants": [
          {
            "id": "p027140",
            "participantType": "CREATOR"
          },
          {
            "id": "p027140",
            "participantType": "UPDATED"
          },
          {
            "id": "p027140",
            "participantType": "CREATOR"
          },
          {
            "id": "p027140",
            "participantType": "UPDATED"
          },
          {
            "id": "p027140",
            "participantType": "CREATOR"
          },
          {
            "id": "p027140",
            "participantType": "UPDATED"
          },
          {
            "id": "p027140",
            "participantType": "CREATOR"
          },
          {
            "id": "p027140",
            "participantType": "UPDATED"
          },
          {
            "id": "p027140",
            "participantType": "CREATOR"
          },
          {
            "id": "p027140",
            "participantType": "UPDATED"
          },
          {
            "id": "p027140",
            "participantType": "CREATOR"
          },
          {
            "id": "p027140",
            "participantType": "UPDATED"
          },
          {
            "id": "p027140",
            "participantType": "CREATOR"
          },
          {
            "id": "p027140",
            "participantType": "UPDATED"
          },
          {
            "id": "p027140",
            "participantType": "CREATOR"
          },
          {
            "id": "p027140",
            "participantType": "UPDATED"
          },
          {
            "id": "p027140",
            "participantType": "CREATOR"
          },
          {
            "id": "p027140",
            "participantType": "UPDATED"
          },
          {
            "id": "p027140",
            "participantType": "CREATOR"
          },
          {
            "id": "p027140",
            "participantType": "UPDATED"
          }
        ],
        "bank": {
          "id": "C",
          "location": {
            "addressName": "0",
            "city": "XXX",
            "country": "XXX",
            "branch": {
              "id": "0",
              "name": "X"
            }
          }
        }
      },
      {
        "id": "2121070222",
        "number": "2121070222",
        "name": "XXXXXXXX",
        "shortName": "XXXXXXXX",
        "currency": "JPY",
        "swift": "C",
        "creationDate": "2022-07-27T22:36:55.766-0500",
        "lastUpdateDate": "2022-07-27T22:36:55.766-0500",
        "comment": "--",
        "accountOriginType": {
          "id": "C"
        },
        "status": {
          "id": "INACTIVE"
        },
        "participants": [
          {
            "id": "p027140",
            "participantType": "CREATOR"
          },
          {
            "id": "p027140",
            "participantType": "UPDATED"
          },
          {
            "id": "p027140",
            "participantType": "CREATOR"
          },
          {
            "id": "p027140",
            "participantType": "UPDATED"
          },
          {
            "id": "p027140",
            "participantType": "CREATOR"
          },
          {
            "id": "p027140",
            "participantType": "UPDATED"
          },
          {
            "id": "p027140",
            "participantType": "CREATOR"
          },
          {
            "id": "p027140",
            "participantType": "UPDATED"
          },
          {
            "id": "p027140",
            "participantType": "CREATOR"
          },
          {
            "id": "p027140",
            "participantType": "UPDATED"
          },
          {
            "id": "p027140",
            "participantType": "CREATOR"
          },
          {
            "id": "p027140",
            "participantType": "UPDATED"
          },
          {
            "id": "p027140",
            "participantType": "CREATOR"
          },
          {
            "id": "p027140",
            "participantType": "UPDATED"
          },
          {
            "id": "p027140",
            "participantType": "CREATOR"
          },
          {
            "id": "p027140",
            "participantType": "UPDATED"
          },
          {
            "id": "p027140",
            "participantType": "CREATOR"
          },
          {
            "id": "p027140",
            "participantType": "UPDATED"
          },
          {
            "id": "p027140",
            "participantType": "CREATOR"
          },
          {
            "id": "p027140",
            "participantType": "UPDATED"
          }
        ],
        "bank": {
          "id": "C",
          "location": {
            "addressName": "0",
            "city": "XXX",
            "country": "XXX",
            "branch": {
              "id": "0",
              "name": "X"
            }
          }
        }
      },
      {
        "id": "2121070221",
        "number": "2121070221",
        "name": "XXXXXXXX",
        "shortName": "XXXXXXXX",
        "currency": "GBP",
        "swift": "C",
        "creationDate": "2022-07-27T22:36:55.405-0500",
        "lastUpdateDate": "2022-07-27T22:36:55.405-0500",
        "comment": "--",
        "accountOriginType": {
          "id": "C"
        },
        "status": {
          "id": "INACTIVE"
        },
        "participants": [
          {
            "id": "p027140",
            "participantType": "CREATOR"
          },
          {
            "id": "p027140",
            "participantType": "UPDATED"
          },
          {
            "id": "p027140",
            "participantType": "CREATOR"
          },
          {
            "id": "p027140",
            "participantType": "UPDATED"
          },
          {
            "id": "p027140",
            "participantType": "CREATOR"
          },
          {
            "id": "p027140",
            "participantType": "UPDATED"
          },
          {
            "id": "p027140",
            "participantType": "CREATOR"
          },
          {
            "id": "p027140",
            "participantType": "UPDATED"
          },
          {
            "id": "p027140",
            "participantType": "CREATOR"
          },
          {
            "id": "p027140",
            "participantType": "UPDATED"
          },
          {
            "id": "p027140",
            "participantType": "CREATOR"
          },
          {
            "id": "p027140",
            "participantType": "UPDATED"
          },
          {
            "id": "p027140",
            "participantType": "CREATOR"
          },
          {
            "id": "p027140",
            "participantType": "UPDATED"
          },
          {
            "id": "p027140",
            "participantType": "CREATOR"
          },
          {
            "id": "p027140",
            "participantType": "UPDATED"
          },
          {
            "id": "p027140",
            "participantType": "CREATOR"
          },
          {
            "id": "p027140",
            "participantType": "UPDATED"
          },
          {
            "id": "p027140",
            "participantType": "CREATOR"
          },
          {
            "id": "p027140",
            "participantType": "UPDATED"
          }
        ],
        "bank": {
          "id": "C",
          "location": {
            "addressName": "0",
            "city": "XXX",
            "country": "XXX",
            "branch": {
              "id": "0",
              "name": "X"
            }
          }
        }
      },
      {
        "id": "2121070219",
        "number": "2121070219",
        "name": "XXXXXXXX",
        "shortName": "XXXXXXXX",
        "currency": "EUR",
        "swift": "C",
        "creationDate": "2022-07-27T22:36:55.265-0500",
        "lastUpdateDate": "2022-07-27T22:36:55.265-0500",
        "comment": "--",
        "accountOriginType": {
          "id": "C"
        },
        "status": {
          "id": "INACTIVE"
        },
        "participants": [
          {
            "id": "p027140",
            "participantType": "CREATOR"
          },
          {
            "id": "p027140",
            "participantType": "UPDATED"
          },
          {
            "id": "p027140",
            "participantType": "CREATOR"
          },
          {
            "id": "p027140",
            "participantType": "UPDATED"
          },
          {
            "id": "p027140",
            "participantType": "CREATOR"
          },
          {
            "id": "p027140",
            "participantType": "UPDATED"
          },
          {
            "id": "p027140",
            "participantType": "CREATOR"
          },
          {
            "id": "p027140",
            "participantType": "UPDATED"
          },
          {
            "id": "p027140",
            "participantType": "CREATOR"
          },
          {
            "id": "p027140",
            "participantType": "UPDATED"
          },
          {
            "id": "p027140",
            "participantType": "CREATOR"
          },
          {
            "id": "p027140",
            "participantType": "UPDATED"
          },
          {
            "id": "p027140",
            "participantType": "CREATOR"
          },
          {
            "id": "p027140",
            "participantType": "UPDATED"
          },
          {
            "id": "p027140",
            "participantType": "CREATOR"
          },
          {
            "id": "p027140",
            "participantType": "UPDATED"
          },
          {
            "id": "p027140",
            "participantType": "CREATOR"
          },
          {
            "id": "p027140",
            "participantType": "UPDATED"
          },
          {
            "id": "p027140",
            "participantType": "CREATOR"
          },
          {
            "id": "p027140",
            "participantType": "UPDATED"
          }
        ],
        "bank": {
          "id": "C",
          "location": {
            "addressName": "0",
            "city": "XXX",
            "country": "XXX",
            "branch": {
              "id": "0",
              "name": "X"
            }
          }
        }
      },
      {
        "id": "2121070218",
        "number": "2121070218",
        "name": "XXXXXXXX",
        "shortName": "XXXXXXXX",
        "currency": "CHF",
        "swift": "C",
        "creationDate": "2022-07-27T22:36:54.906-0500",
        "lastUpdateDate": "2022-07-27T22:36:54.906-0500",
        "comment": "--",
        "accountOriginType": {
          "id": "C"
        },
        "status": {
          "id": "INACTIVE"
        },
        "participants": [
          {
            "id": "p027140",
            "participantType": "CREATOR"
          },
          {
            "id": "p027140",
            "participantType": "UPDATED"
          },
          {
            "id": "p027140",
            "participantType": "CREATOR"
          },
          {
            "id": "p027140",
            "participantType": "UPDATED"
          },
          {
            "id": "p027140",
            "participantType": "CREATOR"
          },
          {
            "id": "p027140",
            "participantType": "UPDATED"
          },
          {
            "id": "p027140",
            "participantType": "CREATOR"
          },
          {
            "id": "p027140",
            "participantType": "UPDATED"
          },
          {
            "id": "p027140",
            "participantType": "CREATOR"
          },
          {
            "id": "p027140",
            "participantType": "UPDATED"
          },
          {
            "id": "p027140",
            "participantType": "CREATOR"
          },
          {
            "id": "p027140",
            "participantType": "UPDATED"
          },
          {
            "id": "p027140",
            "participantType": "CREATOR"
          },
          {
            "id": "p027140",
            "participantType": "UPDATED"
          },
          {
            "id": "p027140",
            "participantType": "CREATOR"
          },
          {
            "id": "p027140",
            "participantType": "UPDATED"
          },
          {
            "id": "p027140",
            "participantType": "CREATOR"
          },
          {
            "id": "p027140",
            "participantType": "UPDATED"
          },
          {
            "id": "p027140",
            "participantType": "CREATOR"
          },
          {
            "id": "p027140",
            "participantType": "UPDATED"
          }
        ],
        "bank": {
          "id": "C",
          "location": {
            "addressName": "0",
            "city": "XXX",
            "country": "XXX",
            "branch": {
              "id": "0",
              "name": "X"
            }
          }
        }
      },
      {
        "id": "2121070217",
        "number": "2121070217",
        "name": "XXXXXXXX",
        "shortName": "XXXXXXXX",
        "currency": "CAD",
        "swift": "C",
        "creationDate": "2022-07-27T22:36:54.795-0500",
        "lastUpdateDate": "2022-07-27T22:36:54.795-0500",
        "comment": "--",
        "accountOriginType": {
          "id": "C"
        },
        "status": {
          "id": "INACTIVE"
        },
        "participants": [
          {
            "id": "p027140",
            "participantType": "CREATOR"
          },
          {
            "id": "p027140",
            "participantType": "UPDATED"
          },
          {
            "id": "p027140",
            "participantType": "CREATOR"
          },
          {
            "id": "p027140",
            "participantType": "UPDATED"
          },
          {
            "id": "p027140",
            "participantType": "CREATOR"
          },
          {
            "id": "p027140",
            "participantType": "UPDATED"
          },
          {
            "id": "p027140",
            "participantType": "CREATOR"
          },
          {
            "id": "p027140",
            "participantType": "UPDATED"
          },
          {
            "id": "p027140",
            "participantType": "CREATOR"
          },
          {
            "id": "p027140",
            "participantType": "UPDATED"
          },
          {
            "id": "p027140",
            "participantType": "CREATOR"
          },
          {
            "id": "p027140",
            "participantType": "UPDATED"
          },
          {
            "id": "p027140",
            "participantType": "CREATOR"
          },
          {
            "id": "p027140",
            "participantType": "UPDATED"
          },
          {
            "id": "p027140",
            "participantType": "CREATOR"
          },
          {
            "id": "p027140",
            "participantType": "UPDATED"
          },
          {
            "id": "p027140",
            "participantType": "CREATOR"
          },
          {
            "id": "p027140",
            "participantType": "UPDATED"
          },
          {
            "id": "p027140",
            "participantType": "CREATOR"
          },
          {
            "id": "p027140",
            "participantType": "UPDATED"
          }
        ],
        "bank": {
          "id": "C",
          "location": {
            "addressName": "0",
            "city": "XXX",
            "country": "XXX",
            "branch": {
              "id": "0",
              "name": "X"
            }
          }
        }
      },
      {
        "id": "2121070216",
        "number": "2121070216",
        "name": "XXXXXXXX",
        "shortName": "XXXXXXXX",
        "currency": "SEK",
        "swift": "C",
        "creationDate": "2022-07-27T22:36:54.397-0500",
        "lastUpdateDate": "2022-07-27T22:36:54.397-0500",
        "comment": "--",
        "accountOriginType": {
          "id": "C"
        },
        "status": {
          "id": "INACTIVE"
        },
        "participants": [
          {
            "id": "p027140",
            "participantType": "CREATOR"
          },
          {
            "id": "p027140",
            "participantType": "UPDATED"
          },
          {
            "id": "p027140",
            "participantType": "CREATOR"
          },
          {
            "id": "p027140",
            "participantType": "UPDATED"
          },
          {
            "id": "p027140",
            "participantType": "CREATOR"
          },
          {
            "id": "p027140",
            "participantType": "UPDATED"
          },
          {
            "id": "p027140",
            "participantType": "CREATOR"
          },
          {
            "id": "p027140",
            "participantType": "UPDATED"
          },
          {
            "id": "p027140",
            "participantType": "CREATOR"
          },
          {
            "id": "p027140",
            "participantType": "UPDATED"
          },
          {
            "id": "p027140",
            "participantType": "CREATOR"
          },
          {
            "id": "p027140",
            "participantType": "UPDATED"
          },
          {
            "id": "p027140",
            "participantType": "CREATOR"
          },
          {
            "id": "p027140",
            "participantType": "UPDATED"
          },
          {
            "id": "p027140",
            "participantType": "CREATOR"
          },
          {
            "id": "p027140",
            "participantType": "UPDATED"
          },
          {
            "id": "p027140",
            "participantType": "CREATOR"
          },
          {
            "id": "p027140",
            "participantType": "UPDATED"
          },
          {
            "id": "p027140",
            "participantType": "CREATOR"
          },
          {
            "id": "p027140",
            "participantType": "UPDATED"
          }
        ],
        "bank": {
          "id": "C",
          "location": {
            "addressName": "0",
            "city": "XXX",
            "country": "XXX",
            "branch": {
              "id": "0",
              "name": "X"
            }
          }
        }
      },
      {
        "id": "2121070215",
        "number": "2121070215",
        "name": "XXXXXXXX",
        "shortName": "XXXXXXXX",
        "currency": "JPY",
        "swift": "C",
        "creationDate": "2022-07-27T22:36:54.257-0500",
        "lastUpdateDate": "2022-07-27T22:36:54.257-0500",
        "comment": "--",
        "accountOriginType": {
          "id": "C"
        },
        "status": {
          "id": "INACTIVE"
        },
        "participants": [
          {
            "id": "p027140",
            "participantType": "CREATOR"
          },
          {
            "id": "p027140",
            "participantType": "UPDATED"
          },
          {
            "id": "p027140",
            "participantType": "CREATOR"
          },
          {
            "id": "p027140",
            "participantType": "UPDATED"
          },
          {
            "id": "p027140",
            "participantType": "CREATOR"
          },
          {
            "id": "p027140",
            "participantType": "UPDATED"
          },
          {
            "id": "p027140",
            "participantType": "CREATOR"
          },
          {
            "id": "p027140",
            "participantType": "UPDATED"
          },
          {
            "id": "p027140",
            "participantType": "CREATOR"
          },
          {
            "id": "p027140",
            "participantType": "UPDATED"
          },
          {
            "id": "p027140",
            "participantType": "CREATOR"
          },
          {
            "id": "p027140",
            "participantType": "UPDATED"
          },
          {
            "id": "p027140",
            "participantType": "CREATOR"
          },
          {
            "id": "p027140",
            "participantType": "UPDATED"
          },
          {
            "id": "p027140",
            "participantType": "CREATOR"
          },
          {
            "id": "p027140",
            "participantType": "UPDATED"
          },
          {
            "id": "p027140",
            "participantType": "CREATOR"
          },
          {
            "id": "p027140",
            "participantType": "UPDATED"
          },
          {
            "id": "p027140",
            "participantType": "CREATOR"
          },
          {
            "id": "p027140",
            "participantType": "UPDATED"
          }
        ],
        "bank": {
          "id": "C",
          "location": {
            "addressName": "0",
            "city": "XXX",
            "country": "XXX",
            "branch": {
              "id": "0",
              "name": "X"
            }
          }
        }
      },
      {
        "id": "2121070214",
        "number": "2121070214",
        "name": "XXXXXXXX",
        "shortName": "XXXXXXXX",
        "currency": "GBP",
        "swift": "C",
        "creationDate": "2022-07-27T22:36:53.902-0500",
        "lastUpdateDate": "2022-07-27T22:36:53.902-0500",
        "comment": "--",
        "accountOriginType": {
          "id": "C"
        },
        "status": {
          "id": "INACTIVE"
        },
        "participants": [
          {
            "id": "p027140",
            "participantType": "CREATOR"
          },
          {
            "id": "p027140",
            "participantType": "UPDATED"
          },
          {
            "id": "p027140",
            "participantType": "CREATOR"
          },
          {
            "id": "p027140",
            "participantType": "UPDATED"
          },
          {
            "id": "p027140",
            "participantType": "CREATOR"
          },
          {
            "id": "p027140",
            "participantType": "UPDATED"
          },
          {
            "id": "p027140",
            "participantType": "CREATOR"
          },
          {
            "id": "p027140",
            "participantType": "UPDATED"
          },
          {
            "id": "p027140",
            "participantType": "CREATOR"
          },
          {
            "id": "p027140",
            "participantType": "UPDATED"
          },
          {
            "id": "p027140",
            "participantType": "CREATOR"
          },
          {
            "id": "p027140",
            "participantType": "UPDATED"
          },
          {
            "id": "p027140",
            "participantType": "CREATOR"
          },
          {
            "id": "p027140",
            "participantType": "UPDATED"
          },
          {
            "id": "p027140",
            "participantType": "CREATOR"
          },
          {
            "id": "p027140",
            "participantType": "UPDATED"
          },
          {
            "id": "p027140",
            "participantType": "CREATOR"
          },
          {
            "id": "p027140",
            "participantType": "UPDATED"
          },
          {
            "id": "p027140",
            "participantType": "CREATOR"
          },
          {
            "id": "p027140",
            "participantType": "UPDATED"
          }
        ],
        "bank": {
          "id": "C",
          "location": {
            "addressName": "0",
            "city": "XXX",
            "country": "XXX",
            "branch": {
              "id": "0",
              "name": "X"
            }
          }
        }
      }
    ],
    "pagination": {
      "links": {
        "first": "/accounting/v0/conciliations/accounts",
        "last": "/accounting/v0/conciliations/accounts?paginationKey=LAST"
      },
      "page": 1,
      "totalPages": 9,
      "totalElements": 83,
      "pageSize": 10
    }
  }