{
    "data": [
        {
            "sourceOriginFile": {
                "id": "1234",
                "financialStatement": {
                    "id": "145"
                },
                "account": {
                    "schemeId": "121",
                    "bank": {
                        "references": "ES5001820061700080101708"
                    }
                }
            },
            "openBalance": {
                "amount": 12000,
                "currency": "PEN",
                "openBalanceDate": "2022-05-22T05:20:00-05:00",
                "sign": {
                    "id": "DEBIT",
                    "name": "Debit"
                }
            },
            "closeBalance": {
                "amount": 15000,
                "currency": "PEN",
                "closeBalanceDate": "2022-05-22T05:20:00-05:00",
                "sign": {
                    "id": "DEBIT",
                    "name": "Debit"
                }
            },
            "banks": [
                {
                    "id": "SENDER",
                    "name": "City bank"
                }
            ]
        },
        {
            "sourceOriginFile": {
                "id": "1234",
                "financialStatement": {
                    "id": "146"
                },
                "account": {
                    "schemeId": "121",
                    "bank": {
                        "references": "ES5001820061700080101708"
                    }
                }
            },
            "openBalance": {
                "amount": 9000,
                "currency": "PEN",
                "openBalanceDate": "2022-05-22T05:20:00-05:00",
                "sign": {
                    "id": "DEBIT",
                    "name": "Debit"
                }
            },
            "closeBalance": {
                "amount": 1000,
                "currency": "PEN",
                "closeBalanceDate": "2022-05-22T05:20:00-05:00",
                "sign": {
                    "id": "DEBIT",
                    "name": "Debit"
                }
            },
            "banks": [
                {
                    "id": "SENDER",
                    "name": "City bank"
                }
            ]
        },
        {
            "sourceOriginFile": {
                "id": "1234",
                "financialStatement": {
                    "id": "147"
                },
                "account": {
                    "schemeId": "121",
                    "bank": {
                        "references": "ES5001820061700080101708"
                    }
                }
            },
            "openBalance": {
                "amount": 30000,
                "currency": "PEN",
                "openBalanceDate": "2022-05-22T05:20:00-05:00",
                "sign": {
                    "id": "DEBIT",
                    "name": "Debit"
                }
            },
            "closeBalance": {
                "amount": 15000,
                "currency": "PEN",
                "closeBalanceDate": "2022-05-22T05:20:00-05:00",
                "sign": {
                    "id": "DEBIT",
                    "name": "Debit"
                }
            },
            "banks": [
                {
                    "id": "SENDER",
                    "name": "City bank"
                }
            ]
        },
        {
            "sourceOriginFile": {
                "id": "1234",
                "financialStatement": {
                    "id": "148"
                },
                "account": {
                    "schemeId": "121",
                    "bank": {
                        "references": "ES5001820061700080101708"
                    }
                }
            },
            "openBalance": {
                "amount": 7000,
                "currency": "PEN",
                "openBalanceDate": "2022-05-22T05:20:00-05:00",
                "sign": {
                    "id": "DEBIT",
                    "name": "Debit"
                }
            },
            "closeBalance": {
                "amount": 6500,
                "currency": "PEN",
                "closeBalanceDate": "2022-05-22T05:20:00-05:00",
                "sign": {
                    "id": "DEBIT",
                    "name": "Debit"
                }
            },
            "banks": [
                {
                    "id": "SENDER",
                    "name": "City bank"
                }
            ]
        },{
            "sourceOriginFile": {
                "id": "1234",
                "financialStatement": {
                    "id": "149"
                },
                "account": {
                    "schemeId": "121",
                    "bank": {
                        "references": "ES5001820061700080101708"
                    }
                }
            },
            "openBalance": {
                "amount": 8000,
                "currency": "PEN",
                "openBalanceDate": "2022-05-22T05:20:00-05:00",
                "sign": {
                    "id": "DEBIT",
                    "name": "Debit"
                }
            },
            "closeBalance": {
                "amount": 15000,
                "currency": "PEN",
                "closeBalanceDate": "2022-05-22T05:20:00-05:00",
                "sign": {
                    "id": "DEBIT",
                    "name": "Debit"
                }
            },
            "banks": [
                {
                    "id": "SENDER",
                    "name": "City bank"
                }
            ]
        },{
            "sourceOriginFile": {
                "id": "1234",
                "financialStatement": {
                    "id": "150"
                },
                "account": {
                    "schemeId": "121",
                    "bank": {
                        "references": "ES5001820061700080101708"
                    }
                }
            },
            "openBalance": {
                "amount": 21000,
                "currency": "PEN",
                "openBalanceDate": "2022-05-22T05:20:00-05:00",
                "sign": {
                    "id": "DEBIT",
                    "name": "Debit"
                }
            },
            "closeBalance": {
                "amount": 15000,
                "currency": "PEN",
                "closeBalanceDate": "2022-05-22T05:20:00-05:00",
                "sign": {
                    "id": "DEBIT",
                    "name": "Debit"
                }
            },
            "banks": [
                {
                    "id": "SENDER",
                    "name": "City bank"
                }
            ]
        },{
            "sourceOriginFile": {
                "id": "1234",
                "financialStatement": {
                    "id": "151"
                },
                "account": {
                    "schemeId": "121",
                    "bank": {
                        "references": "ES5001820061700080101708"
                    }
                }
            },
            "openBalance": {
                "amount": 31000,
                "currency": "PEN",
                "openBalanceDate": "2022-05-22T05:20:00-05:00",
                "sign": {
                    "id": "DEBIT",
                    "name": "Debit"
                }
            },
            "closeBalance": {
                "amount": 31500,
                "currency": "PEN",
                "closeBalanceDate": "2022-05-22T05:20:00-05:00",
                "sign": {
                    "id": "DEBIT",
                    "name": "Debit"
                }
            },
            "banks": [
                {
                    "id": "SENDER",
                    "name": "City bank"
                }
            ]
        },{
            "sourceOriginFile": {
                "id": "1234",
                "financialStatement": {
                    "id": "152"
                },
                "account": {
                    "schemeId": "121",
                    "bank": {
                        "references": "ES5001820061700080101708"
                    }
                }
            },
            "openBalance": {
                "amount": 72000,
                "currency": "PEN",
                "openBalanceDate": "2022-05-22T05:20:00-05:00",
                "sign": {
                    "id": "DEBIT",
                    "name": "Debit"
                }
            },
            "closeBalance": {
                "amount": 71500,
                "currency": "PEN",
                "closeBalanceDate": "2022-05-22T05:20:00-05:00",
                "sign": {
                    "id": "DEBIT",
                    "name": "Debit"
                }
            },
            "banks": [
                {
                    "id": "SENDER",
                    "name": "City bank"
                }
            ]
        },{
            "sourceOriginFile": {
                "id": "1234",
                "financialStatement": {
                    "id": "153"
                },
                "account": {
                    "schemeId": "121",
                    "bank": {
                        "references": "ES5001820061700080101708"
                    }
                }
            },
            "openBalance": {
                "amount": 42000,
                "currency": "PEN",
                "openBalanceDate": "2022-05-22T05:20:00-05:00",
                "sign": {
                    "id": "DEBIT",
                    "name": "Debit"
                }
            },
            "closeBalance": {
                "amount": 51500,
                "currency": "PEN",
                "closeBalanceDate": "2022-05-22T05:20:00-05:00",
                "sign": {
                    "id": "DEBIT",
                    "name": "Debit"
                }
            },
            "banks": [
                {
                    "id": "SENDER",
                    "name": "City bank"
                }
            ]
        },{
            "sourceOriginFile": {
                "id": "1234",
                "financialStatement": {
                    "id": "154"
                },
                "account": {
                    "schemeId": "121",
                    "bank": {
                        "references": "ES5001820061700080101708"
                    }
                }
            },
            "openBalance": {
                "amount": 22000,
                "currency": "PEN",
                "openBalanceDate": "2022-05-22T05:20:00-05:00",
                "sign": {
                    "id": "DEBIT",
                    "name": "Debit"
                }
            },
            "closeBalance": {
                "amount": 21500,
                "currency": "PEN",
                "closeBalanceDate": "2022-05-22T05:20:00-05:00",
                "sign": {
                    "id": "DEBIT",
                    "name": "Debit"
                }
            },
            "banks": [
                {
                    "id": "SENDER",
                    "name": "City bank"
                }
            ]
        },{
            "sourceOriginFile": {
                "id": "1234",
                "financialStatement": {
                    "id": "155"
                },
                "account": {
                    "schemeId": "121",
                    "bank": {
                        "references": "ES5001820061700080101708"
                    }
                }
            },
            "openBalance": {
                "amount": 92000,
                "currency": "PEN",
                "openBalanceDate": "2022-05-22T05:20:00-05:00",
                "sign": {
                    "id": "DEBIT",
                    "name": "Debit"
                }
            },
            "closeBalance": {
                "amount": 10500,
                "currency": "PEN",
                "closeBalanceDate": "2022-05-22T05:20:00-05:00",
                "sign": {
                    "id": "DEBIT",
                    "name": "Debit"
                }
            },
            "banks": [
                {
                    "id": "SENDER",
                    "name": "City bank"
                }
            ]
        },{
            "sourceOriginFile": {
                "id": "1234",
                "financialStatement": {
                    "id": "156"
                },
                "account": {
                    "schemeId": "121",
                    "bank": {
                        "references": "ES5001820061700080101708"
                    }
                }
            },
            "openBalance": {
                "amount": 10000,
                "currency": "PEN",
                "openBalanceDate": "2022-05-22T05:20:00-05:00",
                "sign": {
                    "id": "DEBIT",
                    "name": "Debit"
                }
            },
            "closeBalance": {
                "amount": 91500,
                "currency": "PEN",
                "closeBalanceDate": "2022-05-22T05:20:00-05:00",
                "sign": {
                    "id": "DEBIT",
                    "name": "Debit"
                }
            },
            "banks": [
                {
                    "id": "SENDER",
                    "name": "City bank"
                }
            ]
        }
    ],
    "pagination": {
        "links": {
          "first": "/accounting/v0/conciliations/accounts/11120101/financial-statements/search",
          "last": "/accounting/v0/conciliations/accounts/11120101/financial-statements/search?paginationKey=gdfw254sf",
          "previous": "/accounting/v0/conciliations/accounts/11120101/financial-statements/search?paginationKey=dwer342sf",
          "next": "/accounting/v0/conciliations/accounts/11120101/financial-statements/search?paginationKey=qazx687sf"
        },
        "page": 1,
        "totalPages": 1,
        "totalElements": 1,
        "pageSize": 4
      }
}